{
  "name": "",
  "css_prefix_text": "icon-",
  "css_use_suffix": false,
  "glyphs": [
    {
      "uid": "d94334f23acba022bfd68e49d76b31bb",
      "css": "github",
      "code": 59394,
      "src": "entypo"
    },
    {
      "uid": "d090355c31f497b61d676416c1fd39fb",
      "css": "twitter",
      "code": 59392,
      "src": "entypo"
    },
    {
      "uid": "7132e1233bc16cd1b6efe7e29d3613a5",
      "css": "linkedin",
      "code": 59395,
      "src": "entypo"
    },
    {
      "uid": "ccc2329632396dc096bb638d4b46fb98",
      "css": "mail-alt",
      "code": 59393,
      "src": "fontawesome"
    },
    {
      "uid": "a1bd477f92e956144558e6b6c671ed6e",
      "css": "data-science-inv",
      "code": 59396,
      "src": "mfglabs"
    },
    {
      "uid": "5b1387fb48babf0748ea04107c9adac3",
      "css": "bitbucket",
      "code": 59397,
      "src": "zocial"
    }
  ]
}